# system info adc on 2018.11.29.15:57:04
system_info:
name,value
DEVICE,5CSEMA5F31C6
DEVICE_FAMILY,Cyclone V
GENERATION_ID,1543528621
#
#
# Files generated for adc on 2018.11.29.15:57:04
files:
filepath,kind,attributes,module,is_top
simulation/adc.v,VERILOG,,adc,true
simulation/submodules/altera_up_avalon_adv_adc.v,VERILOG,,adc_adc_mega_0,false
simulation/submodules/adc_adc_mega_0.v,VERILOG,,adc_adc_mega_0,false
#
# Map from instance-path to kind of module
instances:
instancePath,module
adc.adc_mega_0,adc_adc_mega_0
