DEPTH = 1024;
WIDTH = 16;

ADDRESS_RADIX = DEC;
DATA_RADIX = HEX;

CONTENT
BEGIN
0    :40;
1    :80;
2    :c0;
3    :100;
4    :140;
5    :180;
6    :1c0;
7    :200;
8    :240;
9    :280;
10   :2c0;
11   :300;
12   :340;
13   :380;
14   :3c0;
15   :400;
16   :440;
17   :480;
18   :4c0;
19   :500;
20   :540;
21   :580;
22   :5c0;
23   :600;
24   :640;
25   :680;
26   :6c0;
27   :700;
28   :740;
29   :780;
30   :7c0;
31   :800;
32   :840;
33   :880;
34   :8c0;
35   :900;
36   :940;
37   :980;
38   :9c0;
39   :a00;
40   :a40;
41   :a80;
42   :ac0;
43   :b00;
44   :b40;
45   :b80;
46   :bc0;
47   :c00;
48   :c40;
49   :c80;
50   :cc0;
51   :d00;
52   :d40;
53   :d80;
54   :dc0;
55   :e00;
56   :e40;
57   :e80;
58   :ec0;
59   :f00;
60   :f40;
61   :f80;
62   :fc0;
63   :1000;
64   :1040;
65   :1080;
66   :10c0;
67   :1100;
68   :1140;
69   :1180;
70   :11c0;
71   :1200;
72   :1240;
73   :1280;
74   :12c0;
75   :1300;
76   :1340;
77   :1380;
78   :13c0;
79   :1400;
80   :1440;
81   :1480;
82   :14c0;
83   :1500;
84   :1540;
85   :1580;
86   :15c0;
87   :1600;
88   :1640;
89   :1680;
90   :16c0;
91   :1700;
92   :1740;
93   :1780;
94   :17c0;
95   :1800;
96   :1840;
97   :1880;
98   :18c0;
99   :1900;
100  :1940;
101  :1980;
102  :19c0;
103  :1a00;
104  :1a40;
105  :1a80;
106  :1ac0;
107  :1b00;
108  :1b40;
109  :1b80;
110  :1bc0;
111  :1c00;
112  :1c40;
113  :1c80;
114  :1cc0;
115  :1d00;
116  :1d40;
117  :1d80;
118  :1dc0;
119  :1e00;
120  :1e40;
121  :1e80;
122  :1ec0;
123  :1f00;
124  :1f40;
125  :1f80;
126  :1fc0;
127  :2000;
128  :2040;
129  :2080;
130  :20c0;
131  :2100;
132  :2140;
133  :2180;
134  :21c0;
135  :2200;
136  :2240;
137  :2280;
138  :22c0;
139  :2300;
140  :2340;
141  :2380;
142  :23c0;
143  :2400;
144  :2440;
145  :2480;
146  :24c0;
147  :2500;
148  :2540;
149  :2580;
150  :25c0;
151  :2600;
152  :2640;
153  :2680;
154  :26c0;
155  :2700;
156  :2740;
157  :2780;
158  :27c0;
159  :2800;
160  :2840;
161  :2880;
162  :28c0;
163  :2900;
164  :2940;
165  :2980;
166  :29c0;
167  :2a00;
168  :2a40;
169  :2a80;
170  :2ac0;
171  :2b00;
172  :2b40;
173  :2b80;
174  :2bc0;
175  :2c00;
176  :2c40;
177  :2c80;
178  :2cc0;
179  :2d00;
180  :2d40;
181  :2d80;
182  :2dc0;
183  :2e00;
184  :2e40;
185  :2e80;
186  :2ec0;
187  :2f00;
188  :2f40;
189  :2f80;
190  :2fc0;
191  :3000;
192  :3040;
193  :3080;
194  :30c0;
195  :3100;
196  :3140;
197  :3180;
198  :31c0;
199  :3200;
200  :3240;
201  :3280;
202  :32c0;
203  :3300;
204  :3340;
205  :3380;
206  :33c0;
207  :3400;
208  :3440;
209  :3480;
210  :34c0;
211  :3500;
212  :3540;
213  :3580;
214  :35c0;
215  :3600;
216  :3640;
217  :3680;
218  :36c0;
219  :3700;
220  :3740;
221  :3780;
222  :37c0;
223  :3800;
224  :3840;
225  :3880;
226  :38c0;
227  :3900;
228  :3940;
229  :3980;
230  :39c0;
231  :3a00;
232  :3a40;
233  :3a80;
234  :3ac0;
235  :3b00;
236  :3b40;
237  :3b80;
238  :3bc0;
239  :3c00;
240  :3c40;
241  :3c80;
242  :3cc0;
243  :3d00;
244  :3d40;
245  :3d80;
246  :3dc0;
247  :3e00;
248  :3e40;
249  :3e80;
250  :3ec0;
251  :3f00;
252  :3f40;
253  :3f80;
254  :3fc0;
255  :4000;
256  :4040;
257  :4080;
258  :40c0;
259  :4100;
260  :4140;
261  :4180;
262  :41c0;
263  :4200;
264  :4240;
265  :4280;
266  :42c0;
267  :4300;
268  :4340;
269  :4380;
270  :43c0;
271  :4400;
272  :4440;
273  :4480;
274  :44c0;
275  :4500;
276  :4540;
277  :4580;
278  :45c0;
279  :4600;
280  :4640;
281  :4680;
282  :46c0;
283  :4700;
284  :4740;
285  :4780;
286  :47c0;
287  :4800;
288  :4840;
289  :4880;
290  :48c0;
291  :4900;
292  :4940;
293  :4980;
294  :49c0;
295  :4a00;
296  :4a40;
297  :4a80;
298  :4ac0;
299  :4b00;
300  :4b40;
301  :4b80;
302  :4bc0;
303  :4c00;
304  :4c40;
305  :4c80;
306  :4cc0;
307  :4d00;
308  :4d40;
309  :4d80;
310  :4dc0;
311  :4e00;
312  :4e40;
313  :4e80;
314  :4ec0;
315  :4f00;
316  :4f40;
317  :4f80;
318  :4fc0;
319  :5000;
320  :5040;
321  :5080;
322  :50c0;
323  :5100;
324  :5140;
325  :5180;
326  :51c0;
327  :5200;
328  :5240;
329  :5280;
330  :52c0;
331  :5300;
332  :5340;
333  :5380;
334  :53c0;
335  :5400;
336  :5440;
337  :5480;
338  :54c0;
339  :5500;
340  :5540;
341  :5580;
342  :55c0;
343  :5600;
344  :5640;
345  :5680;
346  :56c0;
347  :5700;
348  :5740;
349  :5780;
350  :57c0;
351  :5800;
352  :5840;
353  :5880;
354  :58c0;
355  :5900;
356  :5940;
357  :5980;
358  :59c0;
359  :5a00;
360  :5a40;
361  :5a80;
362  :5ac0;
363  :5b00;
364  :5b40;
365  :5b80;
366  :5bc0;
367  :5c00;
368  :5c40;
369  :5c80;
370  :5cc0;
371  :5d00;
372  :5d40;
373  :5d80;
374  :5dc0;
375  :5e00;
376  :5e40;
377  :5e80;
378  :5ec0;
379  :5f00;
380  :5f40;
381  :5f80;
382  :5fc0;
383  :6000;
384  :6040;
385  :6080;
386  :60c0;
387  :6100;
388  :6140;
389  :6180;
390  :61c0;
391  :6200;
392  :6240;
393  :6280;
394  :62c0;
395  :6300;
396  :6340;
397  :6380;
398  :63c0;
399  :6400;
400  :6440;
401  :6480;
402  :64c0;
403  :6500;
404  :6540;
405  :6580;
406  :65c0;
407  :6600;
408  :6640;
409  :6680;
410  :66c0;
411  :6700;
412  :6740;
413  :6780;
414  :67c0;
415  :6800;
416  :6840;
417  :6880;
418  :68c0;
419  :6900;
420  :6940;
421  :6980;
422  :69c0;
423  :6a00;
424  :6a40;
425  :6a80;
426  :6ac0;
427  :6b00;
428  :6b40;
429  :6b80;
430  :6bc0;
431  :6c00;
432  :6c40;
433  :6c80;
434  :6cc0;
435  :6d00;
436  :6d40;
437  :6d80;
438  :6dc0;
439  :6e00;
440  :6e40;
441  :6e80;
442  :6ec0;
443  :6f00;
444  :6f40;
445  :6f80;
446  :6fc0;
447  :7000;
448  :7040;
449  :7080;
450  :70c0;
451  :7100;
452  :7140;
453  :7180;
454  :71c0;
455  :7200;
456  :7240;
457  :7280;
458  :72c0;
459  :7300;
460  :7340;
461  :7380;
462  :73c0;
463  :7400;
464  :7440;
465  :7480;
466  :74c0;
467  :7500;
468  :7540;
469  :7580;
470  :75c0;
471  :7600;
472  :7640;
473  :7680;
474  :76c0;
475  :7700;
476  :7740;
477  :7780;
478  :77c0;
479  :7800;
480  :7840;
481  :7880;
482  :78c0;
483  :7900;
484  :7940;
485  :7980;
486  :79c0;
487  :7a00;
488  :7a40;
489  :7a80;
490  :7ac0;
491  :7b00;
492  :7b40;
493  :7b80;
494  :7bc0;
495  :7c00;
496  :7c40;
497  :7c80;
498  :7cc0;
499  :7d00;
500  :7d40;
501  :7d80;
502  :7dc0;
503  :7e00;
504  :7e40;
505  :7e80;
506  :7ec0;
507  :7f00;
508  :7f40;
509  :7f80;
510  :7fc0;
511  :8000;
512  :803f;
513  :807f;
514  :80bf;
515  :80ff;
516  :813f;
517  :817f;
518  :81bf;
519  :81ff;
520  :823f;
521  :827f;
522  :82bf;
523  :82ff;
524  :833f;
525  :837f;
526  :83bf;
527  :83ff;
528  :843f;
529  :847f;
530  :84bf;
531  :84ff;
532  :853f;
533  :857f;
534  :85bf;
535  :85ff;
536  :863f;
537  :867f;
538  :86bf;
539  :86ff;
540  :873f;
541  :877f;
542  :87bf;
543  :87ff;
544  :883f;
545  :887f;
546  :88bf;
547  :88ff;
548  :893f;
549  :897f;
550  :89bf;
551  :89ff;
552  :8a3f;
553  :8a7f;
554  :8abf;
555  :8aff;
556  :8b3f;
557  :8b7f;
558  :8bbf;
559  :8bff;
560  :8c3f;
561  :8c7f;
562  :8cbf;
563  :8cff;
564  :8d3f;
565  :8d7f;
566  :8dbf;
567  :8dff;
568  :8e3f;
569  :8e7f;
570  :8ebf;
571  :8eff;
572  :8f3f;
573  :8f7f;
574  :8fbf;
575  :8fff;
576  :903f;
577  :907f;
578  :90bf;
579  :90ff;
580  :913f;
581  :917f;
582  :91bf;
583  :91ff;
584  :923f;
585  :927f;
586  :92bf;
587  :92ff;
588  :933f;
589  :937f;
590  :93bf;
591  :93ff;
592  :943f;
593  :947f;
594  :94bf;
595  :94ff;
596  :953f;
597  :957f;
598  :95bf;
599  :95ff;
600  :963f;
601  :967f;
602  :96bf;
603  :96ff;
604  :973f;
605  :977f;
606  :97bf;
607  :97ff;
608  :983f;
609  :987f;
610  :98bf;
611  :98ff;
612  :993f;
613  :997f;
614  :99bf;
615  :99ff;
616  :9a3f;
617  :9a7f;
618  :9abf;
619  :9aff;
620  :9b3f;
621  :9b7f;
622  :9bbf;
623  :9bff;
624  :9c3f;
625  :9c7f;
626  :9cbf;
627  :9cff;
628  :9d3f;
629  :9d7f;
630  :9dbf;
631  :9dff;
632  :9e3f;
633  :9e7f;
634  :9ebf;
635  :9eff;
636  :9f3f;
637  :9f7f;
638  :9fbf;
639  :9fff;
640  :a03f;
641  :a07f;
642  :a0bf;
643  :a0ff;
644  :a13f;
645  :a17f;
646  :a1bf;
647  :a1ff;
648  :a23f;
649  :a27f;
650  :a2bf;
651  :a2ff;
652  :a33f;
653  :a37f;
654  :a3bf;
655  :a3ff;
656  :a43f;
657  :a47f;
658  :a4bf;
659  :a4ff;
660  :a53f;
661  :a57f;
662  :a5bf;
663  :a5ff;
664  :a63f;
665  :a67f;
666  :a6bf;
667  :a6ff;
668  :a73f;
669  :a77f;
670  :a7bf;
671  :a7ff;
672  :a83f;
673  :a87f;
674  :a8bf;
675  :a8ff;
676  :a93f;
677  :a97f;
678  :a9bf;
679  :a9ff;
680  :aa3f;
681  :aa7f;
682  :aabf;
683  :aaff;
684  :ab3f;
685  :ab7f;
686  :abbf;
687  :abff;
688  :ac3f;
689  :ac7f;
690  :acbf;
691  :acff;
692  :ad3f;
693  :ad7f;
694  :adbf;
695  :adff;
696  :ae3f;
697  :ae7f;
698  :aebf;
699  :aeff;
700  :af3f;
701  :af7f;
702  :afbf;
703  :afff;
704  :b03f;
705  :b07f;
706  :b0bf;
707  :b0ff;
708  :b13f;
709  :b17f;
710  :b1bf;
711  :b1ff;
712  :b23f;
713  :b27f;
714  :b2bf;
715  :b2ff;
716  :b33f;
717  :b37f;
718  :b3bf;
719  :b3ff;
720  :b43f;
721  :b47f;
722  :b4bf;
723  :b4ff;
724  :b53f;
725  :b57f;
726  :b5bf;
727  :b5ff;
728  :b63f;
729  :b67f;
730  :b6bf;
731  :b6ff;
732  :b73f;
733  :b77f;
734  :b7bf;
735  :b7ff;
736  :b83f;
737  :b87f;
738  :b8bf;
739  :b8ff;
740  :b93f;
741  :b97f;
742  :b9bf;
743  :b9ff;
744  :ba3f;
745  :ba7f;
746  :babf;
747  :baff;
748  :bb3f;
749  :bb7f;
750  :bbbf;
751  :bbff;
752  :bc3f;
753  :bc7f;
754  :bcbf;
755  :bcff;
756  :bd3f;
757  :bd7f;
758  :bdbf;
759  :bdff;
760  :be3f;
761  :be7f;
762  :bebf;
763  :beff;
764  :bf3f;
765  :bf7f;
766  :bfbf;
767  :bfff;
768  :c03f;
769  :c07f;
770  :c0bf;
771  :c0ff;
772  :c13f;
773  :c17f;
774  :c1bf;
775  :c1ff;
776  :c23f;
777  :c27f;
778  :c2bf;
779  :c2ff;
780  :c33f;
781  :c37f;
782  :c3bf;
783  :c3ff;
784  :c43f;
785  :c47f;
786  :c4bf;
787  :c4ff;
788  :c53f;
789  :c57f;
790  :c5bf;
791  :c5ff;
792  :c63f;
793  :c67f;
794  :c6bf;
795  :c6ff;
796  :c73f;
797  :c77f;
798  :c7bf;
799  :c7ff;
800  :c83f;
801  :c87f;
802  :c8bf;
803  :c8ff;
804  :c93f;
805  :c97f;
806  :c9bf;
807  :c9ff;
808  :ca3f;
809  :ca7f;
810  :cabf;
811  :caff;
812  :cb3f;
813  :cb7f;
814  :cbbf;
815  :cbff;
816  :cc3f;
817  :cc7f;
818  :ccbf;
819  :ccff;
820  :cd3f;
821  :cd7f;
822  :cdbf;
823  :cdff;
824  :ce3f;
825  :ce7f;
826  :cebf;
827  :ceff;
828  :cf3f;
829  :cf7f;
830  :cfbf;
831  :cfff;
832  :d03f;
833  :d07f;
834  :d0bf;
835  :d0ff;
836  :d13f;
837  :d17f;
838  :d1bf;
839  :d1ff;
840  :d23f;
841  :d27f;
842  :d2bf;
843  :d2ff;
844  :d33f;
845  :d37f;
846  :d3bf;
847  :d3ff;
848  :d43f;
849  :d47f;
850  :d4bf;
851  :d4ff;
852  :d53f;
853  :d57f;
854  :d5bf;
855  :d5ff;
856  :d63f;
857  :d67f;
858  :d6bf;
859  :d6ff;
860  :d73f;
861  :d77f;
862  :d7bf;
863  :d7ff;
864  :d83f;
865  :d87f;
866  :d8bf;
867  :d8ff;
868  :d93f;
869  :d97f;
870  :d9bf;
871  :d9ff;
872  :da3f;
873  :da7f;
874  :dabf;
875  :daff;
876  :db3f;
877  :db7f;
878  :dbbf;
879  :dbff;
880  :dc3f;
881  :dc7f;
882  :dcbf;
883  :dcff;
884  :dd3f;
885  :dd7f;
886  :ddbf;
887  :ddff;
888  :de3f;
889  :de7f;
890  :debf;
891  :deff;
892  :df3f;
893  :df7f;
894  :dfbf;
895  :dfff;
896  :e03f;
897  :e07f;
898  :e0bf;
899  :e0ff;
900  :e13f;
901  :e17f;
902  :e1bf;
903  :e1ff;
904  :e23f;
905  :e27f;
906  :e2bf;
907  :e2ff;
908  :e33f;
909  :e37f;
910  :e3bf;
911  :e3ff;
912  :e43f;
913  :e47f;
914  :e4bf;
915  :e4ff;
916  :e53f;
917  :e57f;
918  :e5bf;
919  :e5ff;
920  :e63f;
921  :e67f;
922  :e6bf;
923  :e6ff;
924  :e73f;
925  :e77f;
926  :e7bf;
927  :e7ff;
928  :e83f;
929  :e87f;
930  :e8bf;
931  :e8ff;
932  :e93f;
933  :e97f;
934  :e9bf;
935  :e9ff;
936  :ea3f;
937  :ea7f;
938  :eabf;
939  :eaff;
940  :eb3f;
941  :eb7f;
942  :ebbf;
943  :ebff;
944  :ec3f;
945  :ec7f;
946  :ecbf;
947  :ecff;
948  :ed3f;
949  :ed7f;
950  :edbf;
951  :edff;
952  :ee3f;
953  :ee7f;
954  :eebf;
955  :eeff;
956  :ef3f;
957  :ef7f;
958  :efbf;
959  :efff;
960  :f03f;
961  :f07f;
962  :f0bf;
963  :f0ff;
964  :f13f;
965  :f17f;
966  :f1bf;
967  :f1ff;
968  :f23f;
969  :f27f;
970  :f2bf;
971  :f2ff;
972  :f33f;
973  :f37f;
974  :f3bf;
975  :f3ff;
976  :f43f;
977  :f47f;
978  :f4bf;
979  :f4ff;
980  :f53f;
981  :f57f;
982  :f5bf;
983  :f5ff;
984  :f63f;
985  :f67f;
986  :f6bf;
987  :f6ff;
988  :f73f;
989  :f77f;
990  :f7bf;
991  :f7ff;
992  :f83f;
993  :f87f;
994  :f8bf;
995  :f8ff;
996  :f93f;
997  :f97f;
998  :f9bf;
999  :f9ff;
1000 :fa3f;
1001 :fa7f;
1002 :fabf;
1003 :faff;
1004 :fb3f;
1005 :fb7f;
1006 :fbbf;
1007 :fbff;
1008 :fc3f;
1009 :fc7f;
1010 :fcbf;
1011 :fcff;
1012 :fd3f;
1013 :fd7f;
1014 :fdbf;
1015 :fdff;
1016 :fe3f;
1017 :fe7f;
1018 :febf;
1019 :feff;
1020 :ff3f;
1021 :ff7f;
1022 :ffbf;
1023 :ffff;
END;
